1 Corinthians 2:14
Philippians 3:6
Revelation 3:17
Hebrews 1:3
John 1:14
1 Timothy 1:15
Romans 7:7
Exodus 20:17
Exodus 20:3
Exodus 20:7
Exodus 20:8-11
Exodus 20:12
Exodus 20:13
Exodus 20:16
Exodus 20:14
1 John 3:4
Romans 7:7
1 John 3:4
Galatians 3:24
Galatians 3:24
2 Corinthians 7:10
Matthew 27:4
2 Corinthians 7:10
Matthew 27:5
Acts 5:31
Matthew 27:46
2 Corinthians 5:21
Psalms 51:9-10
John 3:3
Hebrews 10:16
