Matthew 28:20
Luke 10:30-36
Luke 10:37
Matthew 25:32
Matthew 25:40
Luke 4:18, 19
Matthew 10:8
Unresolved: Psalms 148; 
Psalms 24:1:1 Mos. 4:1-9
Matthew 22:37-39; Upp. 14:7
Unresolved: Job 38-41 och 
Unresolved: Psalms 148. Vi behöver komma i
Matthew 6:26, 28-30
Psalms 24:1
Matthew 22:37-39
Matthew 22:37-40; 2 Mos. 22:21
Matthew 22:37-40
Matthew 5:21-30
Matthew 12:9-13; 3 Mos. 25:1-7
Mark. 2:27).  30SÖNDAGEN DEN 1
Matthew 12:9-13
Mark. 1:21-26; 3:1-6
Matthew 12:12
Matthew 6:32, 33
Psalms 9:8-10, 14-21
Unresolved: Psalms 82; 
Unresolved: Psalms 101; 
Psalms 146; Ords. 10:4; 13:23
Psalms 82:3, 4
Psalms 9:8-10, 14-21
Unresolved: Psalms 82. Vad är budskapet ti
Unresolved: Psalms 82 är en reaktion på en
Psalms 82:8
Unresolved: Psalms 82 vädjar till Gud som 
Unresolved: Psalms 82 kan vi finna insikt 
Psalms 82:6
Unresolved: Psalms 101. Den skrevs för led
Unresolved: Psalms 101 tros vara skriven a
Unresolved: Psalms 101 borde vara eden för
Psalms 101:1
Unresolved: Psalms 146, betonar särskilt G
Unresolved: Psalms 146. Vad är dess budska
Psalms 146:5-9
Psalms 146:6
Unresolved: Psalms 146 säger att det är nå
Unresolved: Psalms 146?Men där finns också
Psalms 146:7-9
Unresolved: Psalms 146 säger, borde vi ock
Unresolved: Psalmsﬂ, s. 15-22 i Reflection
Unresolved: Matthew 25 säger Jesus att ﬂva
Matthew 25:40
1 Samuel 8:10-18; Am. 5:10-15
1 Samuel 8:5
1 Samuel 8:10-18
Amos 3:9-11; 4:1, 2; 5:10-15
Unresolved: Isaiahﬂ, s. 303-310 i Prophets
Psalms 115:1-8; 5 Mos. 10:17-2
Psalms 101:1; Jes. 1:10-17
Mark. 12:38-40
Unresolved: Amos 1 och 2). Men de hade ock
Psalms 115:1-8
Psalms 101:1; 146:5-10; Jes. 5
Job 34:12
Job 34:28
Matthew 9:13; Hos. 6:6
Mark. 12:38-40
Unresolved: Matthew 23. Jesus beskrev inte
Matthew 23:13
Matthew 23:23
Unresolved: Isaiah 58ŠA Divine Prescriptio
Luke 1:46-55; 4:16-21; 7:18-23
Matthew 12:15-21; 21:12-16
Mark. 11:15-19; Jes. 53:3-6
Unresolved: Luke 4). Dessutom använde evan
Luke 4:18, 19
Luke 1:46-55
Luke 1:52, 53
Luke 1:43
Luke 4:16-21
Luke 4:21
Luke 4:16-21 och 7:18-23
Matthew 10:7
Mark. 5:24-34; Joh. 5:1-15
Matthew 14:14
Matthew 21:12-16
Mark. 11:15-19
Luke 19:45-48
Matthew 21:11
Luke 19:47, 48
Hebrews 4:15
Romans 6:23
Matthew 5:2-16, 38-48
Romans 12:20, 21
Luke 16:19-31; 12:13-21
Matthew 25:31-46
Matthew 25:40).80
Matthew 5:13-16
Matthew 5:16
Matthew 4:25; 5:1
Matthew 5:38-48
Matthew 5:38-48
Romans 12:20, 21
Luke 10:25-27
Matthew 5:44, 45
Luke 10:29
Luke 10:36, 37
Luke 10:30-37
Luke 16:19-31
Luke 16:19-31 och 12:13-21
Luke 16:29
Unresolved: Matthew 24 och 25. Lärjungarna
Matthew 24:1-3
Matthew 25:40, 45
Unresolved: Matthew 24 gav Jesus mer direk
Unresolved: Matthew 25, berättelsen om de 
Matthew 25:31-46
Matthew 25:38, 40; Apg. 9:36
Romans 12; Jak. 2:1-9
Matthew 28:18-20
Matthew 28:20
Matthew 25:38, 40
Unresolved: Galatians 2 lägger Paulus till
Galatians 2:10
Psalms 112:9
Romans 12:1
Unresolved: Romans 12. Lägg särskilt märke
Unresolved: Romans 12 en sammanfattning av
Romans 12:20, 21
Romans 12:2
Unresolved: Galatians 1, 2). I så fall är 
Unresolved: Romans 12, realistiska och pra
Romans 8:20-23; Joh. 3:16, 17
Matthew 9:36; Ef. 2:8-10; 1
Romans 8:20-23
Matthew 5:45
Romans 3:23
Galatians 3:28
Galatians 3:28
Galatians 3:28; Ef. 2:13
Luke 18:1-8
Matthew 24-25; 1 Kor. 15:12-19
Matthew 10:5-8
Psalms 94:3-7
Romans 8:19-22). I Upp. 6:10
Luke 18:1-8
Unresolved: Matthew 24 och 25) använde Jes
Matthew 24:22
Unresolved: Matthew 24 och 25. Vad anser d
Matthew 10:5-8
Matthew 28:18-20
Unresolved: Matthew 24. Hur borde vi se på
Unresolved: Matthew 25?117117118MISSIONSNY
Psalms 112:4, 5
Matthew 6:25-33; Jak. 1:5-8; 2
Matthew 6:25
Romans 13:1-7
Matthew 22:21
Matthew 7:12
Psalms 112
Psalms 112:5
Psalms 119:36; 2 Kor. 8:12-15
Mark. 12:41-44
Matthew 5:9
Mark. 13:7
Matthew 5:9
Matthew 5:21-26
Matthew 5:43-48
Psalms 146:6-10
Luke 6:20
Matthew 25:35, 36
Psalms 140:13
Hebrews 10:23-25
Hebrews 10:23, 24
Romans 12:1
Matthew 10:7, 8
Job 1:8
Hebrews 10:23-25 V. 25
Romans 12:3-6
Galatians 6:9, 10
Unresolved: Psalms 8, 19, 29, 332. 
Unresolved: Psalms 93-101, 103-1043 1 Mos 
Unresolved: Job 1-519 
Unresolved: Job 6-1020 
Unresolved: Job 11-1621 
Unresolved: Job 17-2122 
Unresolved: Job 22-2723 
Unresolved: Job 28-3124 
Unresolved: Job 32-3525 
Unresolved: Job 36-3926 
Unresolved: Job 40-42; 
Unresolved: Psalms 111-11227 1 Krön 2; 2 M
Unresolved: Psalms 9017. 5 Mos 27-2818 5 M
Psalms 119:1-8821
Psalms 119:89-17622 Jos 1-423
Unresolved: Psalms 105-10731 Dom 1-3˜˚˛˝˙ˆ
Unresolved: 1 Samuel 1-310 
Unresolved: 1 Samuel 4-711 
Unresolved: 1 Samuel 8-1112 
Unresolved: 1 Samuel 12-1413 
Unresolved: 1 Samuel 15, 16; 
Unresolved: Psalms 2314. 
Unresolved: 1 Samuel 17, 1815. 
Unresolved: 1 Samuel 19, 20; 
Unresolved: Psalms 58, 59, 6416. 
Unresolved: 1 Samuel 21; 
Unresolved: Psalms 34, 56; 
Unresolved: 1 Samuel 22; 
Unresolved: Psalms 27, 52, 5717. 
Unresolved: 1 Samuel 23; 
Unresolved: Psalms 11, 31, 54, 63; 
Unresolved: 1 Samuel 24; 
Unresolved: Psalms 142, 14318. 
Unresolved: 1 Samuel 25; 
Unresolved: Psalms 120, 121; 
Unresolved: 1 Samuel 26; 
Unresolved: Psalms 16, 42, 4319. 
Unresolved: 1 Samuel 27-3020 
Unresolved: Psalms 78; 1 Krön 3, 421. 1 Kr
Unresolved: 1 Samuel 31; 1 Krön 10; 
Unresolved: 1 Samuel 1, 2; 
Unresolved: Psalms 724. 
1 Samuel 3-5; 1 Krön 11, 12:23
Unresolved: 1 Samuel 6; 1 Krön 13-1526 1 K
Unresolved: 1 Samuel 7; 
Unresolved: Psalms 24, 13227. 1 Krön 18; 
Unresolved: 1 Samuel 8, 9; 
Unresolved: Psalms 60, 10828. 
Unresolved: 1 Samuel 10, 1 Krön 19, 20; 
Unresolved: Psalms 20, 2129. 
Unresolved: 1 Samuel 11, 12; 
Unresolved: Psalms 32, 5130. 
Unresolved: 1 Samuel 13, 141. 
Unresolved: 1 Samuel 15-172 
Unresolved: Psalms 3-6, 61, 843. 
Unresolved: 1 Samuel 18, 194. 
Unresolved: 1 Samuel 20-225 
Unresolved: 1 Samuel 23, 24; 1 Krön 21, 22
Psalms 728. 1 Krön 29:1 Kung 2
Unresolved: Psalms 899. 
Unresolved: Psalms 1, 2, 9, 10, 12-15, 181
Unresolved: Psalms 22, 25-26, 28, 3011. 
Unresolved: Psalms 35-4012 
Unresolved: Psalms 41, 44, 45, 4913. 
Unresolved: Psalms 50, 53, 55, 62, 69, 701
Unresolved: Psalms 71, 73, 77, 8015. 
Unresolved: Psalms 81, 82, 91, 92, 10216. 
Unresolved: Psalms 109, 110, 113-11617 
Unresolved: Psalms 117, 118, 122, 12318. 2
Unresolved: Psalms 125, 131, 133, 134. 138
Psalms 127, 128, 144; Ef 5:22
Unresolved: Psalms 8316. 2 Kung 4, 517. 2 
Unresolved: Amos 1-425 
Unresolved: Amos 5-926 Hos 1-427 Hos 5-928
Unresolved: Psalms 46-48, 75, 76, 124, 129
Nahum25. 2 Kung 22; 2 Krön 34
Unresolved: Habakkuk27. Jer 1-328 Jer 4-62
Joel; 2 Kung 23:1-20; 2 Krön 3
Unresolved: Psalms 13714. Hes 4-715 Hes 8-
Unresolved: Psalms 74, 79; Klag 1-228 Klag
Unresolved: Psalms 85, 12613. Esra 4-614 
Unresolved: Haggai; Sak 1-415 Sak 5-916 Sa
Mark 1:1-13; Luk 3:1-23, 4:1-1
Mark 1:14-20; Luk 5:1-112
Mark 1:21-2:14; Luk 4:31-44, 5
Mark 2:23-3:19; Luk 64. Matt 5
Mark 3:20-35; Luk 11:14-32, 8
Mark 4:1-34; Luk 8:4-187
Mark 4:35-5:43, 2:15-228 Luk 8
Mark 6:1-29; Matt 13:54-14:12
Mark 6:30-56; Luk 9:10-17
Mark 7:1-8:2612. Matt 18
Mark 8:27-9:1, 9:30-35; Luk 9
Mark 9:2-29; Luk 9:28-4214
Mark 10:1; Luk 9:51-10:2416
Mark 10:2-31; Luk 18:1-3021
Mark 10:32-52; Luk 18:31-19:28
Mark 14:1-11; Luk 7:36-50
Mark 11:1-14, 11:20-26; Luk 19
Mark 11:15-19; Luk 19:45-4824
Mark 11:27-12:17; Luk 20:1-262
Mark 12:18-44; Luk 20:27-21:42
Mark 1327. Luk 21:5-38; Matt 2
Mark 14:12-31; Luk 22:7-39
Unresolved: Psalms 17, 69, 86-8831 Matt 26
Mark 14:32-72; Luk 22:40-65
Mark 15:1-5; Luk 23:1-5; Joh 1
Mark 15:6-472 Luk 23:13-56
Mark 16:1-11; Luk 24:1-12
Mark 16:12-13; Joh 20:19-234
Mark 16:14-20; Luk 24:50-53
Unresolved: Galatians 1-326 
Unresolved: Galatians 4-627 
Unresolved: Romans 1, 228. 
Unresolved: Romans 3, 429. 
Unresolved: Romans 5-730 
Unresolved: Romans 8, 91. 
Unresolved: Romans 10, 112. 
Unresolved: Romans 12-143 
Romans 15, 164. Apg 20:3-21:40
Unresolved: Titus14. 1 Tim15. 2 Tim16. 
Unresolved: Hebrews 1-317 
Unresolved: Hebrews 4-618 
Unresolved: Hebrews 7-919 
Unresolved: Hebrews 10, 1120. 
Unresolved: Hebrews 12, 1321. 1 Joh 1-422 
Unresolved: Psalms 65-68, 135, 13631. 
Psalms 145-150
