##############################################################
#
# File name:	normalize_chapter_and_verse_list.txt
# Date:			2020-10-14 
# Rev:			PA1
# Status:		Test
#
####################### Text ###################################
# 2023-05-05 Change to to semicolon in references Lev. 17.7 
([A-Z][a-z]+)\. ([0-9]+)\.([0-9]+)	\1. \2:\3
# 2023-05-05 Change to to semicolon in references >>Lev. 17.7-3<< 
([A-Z][a-z]+)\. ([0-9]+)\.([0-9]+)-([0-9]+)	\1. \2:\3-\4
# 2023-05-05 Change to to semicolon in references 2 Cor 12.7-9
([0-9]+) ([A-Z][a-z]+) ([0-9]+)\.([0-9]+)-([0-9]+)	\1 \2 \3:\4-\5
# 2023-05-05 Change to to semicolon in references 2 Cor. 12.7) OK
([0-9]+) ([A-Z][a-z]+)\. ([0-9]+)\.([0-9]+)	\1 \2 \3:\4
# 2023-05-05 Change to to semicolon in references John 6.70 OK
([A-Z][a-z]+) ([0-9]+)\.([0-9]+)	\1 \2:\3
####################### End ###################################
#
# def delete_space_in_ref1(i_str):  # 1 Joh. 1:5- 7 => 1 Joh. 1:5-7
([0-9]+):([0-9]+)- ([0-9]+)	\1:\2-\3
#     return i_str  # remove_space_in_bible_verse1
#
# def delete_space_in_ref2(i_str):  # (Rom. 7:7, 9 - 12) => (Rom. 7:7, 9-12)   2018-05-01 16:16
, ([0-9]+) - ([0-9]+)	, \1-\2
#
# def delete_space_in_ref3(i_str):
#  (Hebr. 12:1 - 2) => (Hebr. 12:1-2)
([0-9]+): ([0-9]+) - ([0-9]+)	\1:\2-\3
([0-9]+):([0-9]+) - ([0-9]+)	\1:\2-\3
([0-9]+) : ([0-9]+) - ([0-9]+)	\1:\2-\3
([0-9]+):([0-9]+) -  ([0-9]+)	\1:\2-\3
([0-9]+) : ([0-9]+)	\1:\2
# 2023-11-03 
([0-9]+):([0-9]+) ([0-9]+):([0-9]+)	\1:\2; \3:\4
([0-9]+) ([0-9]+):([0-9]+)	\1\2:\3
([0-9]+) - ([0-9]+)	\1-\2
#
# def delete_space_in_ref4(i_str):  # (Hebr. 12 :1) => (Hebr. 12:1)
([0-9]+) :([0-9]+)	\1:\2
# ([0-9]+:[0-9]+) - ([0-9]+) => \1:\2-\3
#
# def delete_space_in_ref5(i_str):  # (Hebr. 12: 24) => (Hebr. 12:24)
([0-9]+): ([0-9]+)	\1:\2
# ([0-9]+:[0-9]+) - ([0-9]+) => \1:\2-\3
#
# def delete_space_in_ref6(i_str):  # Genesis 2:2-  3
([0-9]+):([0-9]+)-  ([0-9]+)	\1:\2-\3
#
# def delete_space_in_ref7(i_str):
#  Jes. 43:3 -15
([0-9]+):([0-9]+) -([0-9]+)	\1:\2-\3
# 2024-01-27 Rev 16:12- 16
([0-9]+):([0-9]+)- ([0-9]+)	\1:\2-\3
([0-9]+): ([0-9]+)-([0-9]+)	\1:\2-\3
#
# def delete_space_in_ref8(i_str):
#  'Daniel 11:44b-45 and 12:1  -45'    => '# Daniel 11:44b-45 and 12:1  -45'
([0-9]+):([0-9]+)  -([0-9]+)	\1:\2-\3
#
# def delete_space_in_ref9(i_str):
#  Isaiah 37:31, 32   -36    => Isaiah 37:31, 32-36
([0-9]+), ([0-9]+)   -([0-9]+)	\1, \2-\3
# 2021-03-13 Galatians 5:19-2 1
([0-9]+):([0-9]+)-([0-9]) ([0-9])	\1:\2-\3\4
#
# def delete_cf_in_ref(i_str):
# 2020-02-02 Dan. 3:1; cf. 2:31 => Dan. 3:1; 2:31
# i_str = re.sub(r'([0-9]+):([0-9]+); cf\. ([0-9]+):([0-9]+)	\1:\2; \3:\4
 cf\. 	 
# def delete "esp." in ref 2024-04-14 
 esp\. 	 
#
# def delete_multiple_dashes_in_ref(i_str):
# 'Daniel 4:24---27'  => 'Daniel 4:24-27'
([0-9]+):([0-9]+)---([0-9]+)	\1:\2-\3
([0-9]+):([0-9]+)--([0-9]+)	\1:\2-\3
#
# def add_space_in_ref1(i_str):
# James 1:14,15 => James 1:14, 15
([0-9]+):([0-9]+),([0-9]+)	\1:\2, \3
#
# def add_space_in_ref2(i_str):
# 1 Corinthians 15:42, 52,53 => 1 Corinthians 15:42, 52, 53
([0-9]+),([0-9]+)	\1, \2
#
# def add_space_in_ref3(i_str):
# 1 Corinthians 15:42, 52,53,54 => 1 Corinthians 15:42, 52, 53, 54
([0-9]+), ([0-9]+), ([0-9]+),([0-9]+)	\1, \2, \3, \4
#
# def add_space_in_ref4(i_str):
# 1 Corinthians15:42 => 1 Corinthians 15:42
([a-ö]+)([0-9]+):([0-9]+)	\1 \2:\3
#
# def add_space_in_ref5(i_str):
# Joh.1:1     =>  Joh. 1:1          2019-11-10 08:12:50
# Joh.1:1-3     =>  Joh. 1:1-3      2019-11-10 08:12:50
([A-Ö][a-ö]+)\.([0-9]+):([0-9]+)-([0-9]+)	\1. \2:\3-\4
([A-Ö][a-ö]+)\.([0-9]+):([0-9]+)	\1. \2:\3
#
# def delete_dot_in_ref1(i_str):
# (Joh. 14:16-21.) => (Joh. 14:16-21)
# (Proverbs. 4: 23)
 ([0-9]+):([0-9]+)-([0-9]+)\.	 \1:\2-\3
\. ([0-9]+):([0-9]+)	 \1:\2
\. ([0-9]+): ([0-9]+)	 \1:\2
#
# def delete_dot_in_bible_verse2(i_str):
# (Neh. 4:3, 1, 4.) => (Neh. 4:3, 1, 4)
#
([0-9]+), ([0-9]+), ([0-9]+)\.	\1, \2, \3
#
# def delete_dot_in_ref3(i_str):
# (Vers 143.) => (Vers 143)
Vers ([0-9]+)\.	Vers \1
Verse ([0-9]+)\.	Verse \1
#
# def delete_dot_in_ref4(i_str):
# (1 Kor. 16:1-2.) => (1 Kor. 16:1-2)
([0-9]+)-([0-9]+)\.	\1-\2
#
# def modify_dot_to_comma_in_ref(i_str):
# (Jn 1:29.36) => (Jn 1:29, 36) 
#
([0-9]+):([0-9]+)\.([0-9]+)	\1:\2, \3
#
# def change_colon_to_semicolon1(i_str):
# Hab. 2:14: Joh. 17:3   => Hab. 2:14; Joh. 17:3
([0-9]+): ([A-Z][a-z]+)	\1; \2
# ([0-9]+): ([A-Z][a-z]+)
#
# def change_colon_to_semicolon2(i_str):
# Hab. 2:14: 7:3 => Hab. 2:14; 7:3
# 2021-02-13 
# :([0-9]+):([0-9]+): ([0-9]+)	:\1:\2; \3
([0-9]+):([0-9]+): ([0-9]+):([0-9]+)	\1:\2; \3:\4
# ([0-9]+): ([A-Z][a-z]+)
#
# def change_colon_to_semicolon3(i_str):
# Gal. 3:29: 1 Pet. 1:4  => Gal. 3:29; 1 Pet. 1:4
:([0-9]+): ([0-9]+) ([A-Z])	:\1; \2 \3
#
# def delete_and_in_ref(i_str):
# 'Genesis 1:31 and 2:1' => 'Genesis 1:31; 2:1'
# 'Matthew 23:37 and 38'
# Matthew 23:37-38 and verses 21:1-38
# Romans 1:16 & 12:2
([0-9]+):([0-9]+)-([0-9]+) and verses ([0-9]+):([0-9]+)-([0-9]+)	\1:\2-\3; \4:\5-\6
([0-9]+):([0-9]+) and verses ([0-9]+):([0-9]+)	\1:\2; \3:\4
([0-9]+):([0-9]+) and verses ([0-9]+)-([0-9]+)	\1:\2, \3-\4
([0-9]+):([0-9]+) and verse ([0-9]+):([0-9]+)	\1:\2; \3:\4
([0-9]+):([0-9]+) and verse ([0-9]+)-([0-9]+)	\1:\2, \3:\4
([0-9]+):([0-9]+)-([0-9]+) and ([0-9]+):([0-9]+)-([0-9]+)	\1:\2-\3; \4:\5-\6
([0-9]+):([0-9]+) and ([0-9]+):([0-9]+)	\1:\2; \3:\4
([0-9]+):([0-9]+) and ([0-9]+)-([0-9]+)	\1:\2, \3:\4
([0-9]+):([0-9]+) and ([0-9]+)	\1:\2, \3
([0-9]+) and ([0-9]+)	\1, \2
([0-9]+):([0-9]+) & ([0-9]+):([0-9]+)	\1:\2; \3:\4
([0-9]+):([0-9]+); and ([0-9]+):([0-9]+)	\1:\2; \3:\4
 ([0-9]+):([0-9]+) and chapter ([0-9]+)	 \1:\2; \3
 ([0-9]+):([0-9]+) verses ([0-9]+)-([0-9]+)	 \1:\2, \3-\4
 ([0-9]+):([0-9]+) verse ([0-9]+)	 \1:\2, \3
#
# def delete_apochrya_books_in_ref(i_str):
# 2020-02-03 Enoch 91:16
Enoch ([0-9]+):([0-9]+)	 
#
# def delete_with_in_ref(i_str):  
# 2019-10-08    'Genesis 1:31 with 3:11' => 'Genesis 1:31; 3:11'
([0-9]+):([0-9]+) with ([0-9]+):([0-9]+)	\1:\2; \3:\4
([0-9]+):([0-9]+)-([0-9]+) with ([0-9]+):([0-9]+)-([0-9]+)	\1:\2-\3; \4:\5-\6
([0-9]+):([0-9]+)-([0-9]+) with ([0-9]+):([0-9]+)	\1:\2-\3; \4:\5
([0-9]+):([0-9]+) with ([0-9]+):([0-9]+)-([0-9]+)	\1:\2; \3:\4-\5
#
# def delete_see_also_in_ref01(i_str):
# 2019-10-08    Revelation 15:5-8; see also 22:11
# 2021-01-05 Revelation (see chs 16:19;
see chs ([0-9]+):([0-9]+)	\1:\2
([0-9]+); see also ([0-9]+):([0-9]+)	\1; \2:\3
([0-9]+), see also ([0-9]+):([0-9]+)	\1; \2:\3
# 2021-01-12 
see also ([0-9]+):([0-9]+)	\1:\2
([0-9]+); also ([0-9]+):([0-9]+)	\1; \2:\3
([0-9]+), also ([0-9]+):([0-9]+)	\1; \2:\3
([0-9]+) also ([0-9]+):([0-9]+)	\1; \2:\3
#
# def delete_see_also_in_ref02(i_str):
# ('John 6:40, see also 39, 44, 54')
([0-9]+), see also ([0-9]+)	\1, \2
#
# def add_comma_in_ref(i_str):
# 2 Kings 11:1 21 => 2 Kings 11:1, 21 --or-- is this better 2 Kings 11:1-21? 2020-11-19
([0-9]+):([0-9]+) ([0-9]+)	\1:\2, \3
#
# def delete_och_in_ref(i_str):  # 2019-10-08    'Genesis 1:31 och 2:1' => 'Genesis 1:31; 2:1'
([0-9]+):([0-9]+) och ([0-9]+):([0-9]+)	\1:\2; \3:\4
([0-9]+):([0-9]+) och ([0-9]+)	\1:\2, \3
([0-9]+):([0-9]+)-([0-9]+) och ([0-9]+):([0-9]+)-([0-9]+)	\1:\2-\3; \4:\5-\6
# Apg 2:42-47 och 4:32-37   Mika 2:8-11 och 3:8-12
([0-9]+):([0-9]+) och ([0-9]+):([0-9]+)	\1:\2; \3:\4
# 1 Mos 1:28 och 2:15
([0-9]+):([0-9]+)-([0-9]+) och ([0-9]+):([0-9]+)	\1:\2-\3; \4:\5
# Jes 3:13-15 och 5:7
([0-9]+), ([0-9]+) och ([0-9]+)	\1, \2, \3
# 2020-10-14 ([A-?])([a-?]+) ([0-9]+):([0-9]+) och ([A-?])([a-?]+) ([0-9]+):([0-9]+)	\1\2 \3:\4; \5\6 \7:\8
([A-Z])([a-z]+) ([0-9]+):([0-9]+) och ([A-Z])([a-z]+) ([0-9]+):([0-9]+)	\1\2 \3:\4; \5\6 \7:\8
([0-9]+):([0-9]+) beskriver ?ven ([0-9]+):([0-9]+)	\1:\2; \3:\4
#
# def delete_to_in_ref(i_str):  # 2019-10-12
([0-9]+):([0-9]+) to ([0-9]+):([0-9]+)	\1:\2-\3:\4
([0-9]+):([0-9]+) to ([0-9]+)	\1:\2-\3
#
# def delete_numbers_and_parenthesis(i_str):
# text1 (75) text2      =>  text1 text2
 \(([0-9]+)\) 	 
#
# def delete_a_b_c_d_e_f_in_ref(i_str):
# Daniel 11:44b-45  => Daniel 11:44-45
# Daniel 11:44a  => Daniel 11:44a
([0-9]+):([0-9]+)a	\1:\2
([0-9]+):([0-9]+)b	\1:\2
([0-9]+):([0-9]+)c	\1:\2
([0-9]+):([0-9]+)d	\1:\2
([0-9]+):([0-9]+)e	\1:\2
([0-9]+):([0-9]+):A	\1:\2
([0-9]+):([0-9]+):B	\1:\2
([0-9]+):([0-9]+):C	\1:\2
([0-9]+):([0-9]+):D	\1:\2
([0-9]+):([0-9]+):E	\1:\2
([0-9]+):([0-9]+)ff	\1:\2
([0-9]+):([0-9]+)f	\1:\2
#
# delete_ff_in_ref(i_str):
# 'Psalms 78:12ff'    =>  'Psalms 78:12ff'
([0-9]+):([0-9]+)ff	\1:\2
#
# def delete_chapter_in_ref(i_str):  # 2019-12-23
# Revelation ch 11:1
# Revelation (ch 11:1
#  (ch ([0-9]+):([0-9]+)	 \1:\2
 ch ([0-9]+):([0-9]+)	 \1:\2
 chapter ([0-9]+):([0-9]+)	 \1:\2
 Chapter ([0-9]+):([0-9]+)	 \1:\2
#
# def delete_difficult_words_in_text(t_str: str):
([0-9]+) B\.C\.	 
([0-9]+) A\.C\.	 
MONDAY ([0-9]+)page ([0-9]+)	 
TUESDAY ([0-9]+)page ([0-9]+)	 
WEDNESDAY ([0-9]+)page ([0-9]+)	 
THURSDAY ([0-9]+)page ([0-9]+)	 
FRIDAY ([0-9]+)page ([0-9]+)	 
MONDAY page ([0-9]+)	 
TUESDAY page ([0-9]+)	 
WEDNESDAY page ([0-9]+)	 
THURSDAY page ([0-9]+)	 
FRIDAY page ([0-9]+)	 
page ([0-9]+)	 
p\. ([0-9]+)	 
t e ac h e r s c o m m e n t s ([0-9]+)	 
#
# Add fake BibleBook and chapter in references, 2022-01-31 
# (verse 5) => (BibleBook x:5)
# verse([0-9]+)	verse \1'
# verses([0-9]+)	verses \1'
#(verse([0-9]+))	(BibleBook x:\1)
# verse ([0-9]+)	BibleBook x:\1
# verses ([0-9]+), ([0-9]+)	BibleBook x:\1, \2
# verses ([0-9]+)-([0-9]+)	BibleBook x:\1-\2
# vers ([0-9]+)	BibleBook x:\1
# verserna ([0-9]+), ([0-9]+)	BibleBook x:\1, \2
# verserna ([0-9]+)-([0-9]+)	BibleBook x:\1-\2
#
# 2023-05-05 Change to to semicolon in references >>Matt. 16.13<< OK
([A-Z][a-z]+)\. ([0-9]+)\.([0-9]+)	\1. \2:\3
# 2023-05-05 Change to to semicolon in references >>Matt.16.13<< OK
([A-Z][a-z]+)\.([0-9]+)\.([0-9]+)	\1. \2:\3
# 2023-05-05 Change to to semicolon in references >>Matthew 16.13<< OK
([A-Z][a-z]+) ([0-9]+)\.([0-9]+)	\1 \2:\3
#
# 2023-05-05 Change to to semicolon in references >>2 Chron. 11.15<< OK
([0-9]+) ([A-Z][a-z]+)\. ([0-9]+)\.([0-9]+)	\1 \2. \3:\4
# 2023-05-05 Change to to semicolon in references >>2 Chron.11.15<< OK
([0-9]+) ([A-Z][a-z]+)\.([0-9]+)\.([0-9]+)	\1 \2. \3:\4
#
#
#
# 2023-05-05 Change to to semicolon in references Lev. 17.7 
#([A-Z][a-z]+)\. ([0-9]+) \.([0-9]+)	\1. \2:\3
# 2023-05-05 Change to to semicolon in references >>Lev. 17 .7-3<< 
#([A-Z][a-z]+)\. ([0-9]+) \.([0-9]+)-([0-9]+)	\1. \2:\3-\4
# 2023-05-05 Change to to semicolon in references 2 Cor 12 .7-9
#([0-9]+) ([A-Z][a-z]+) ([0-9]+) \.([0-9]+)-([0-9]+)	\1 \2 \3:\4-\5
# 2023-05-05 Change to to semicolon in references 2 Cor. 12 .7) OK
#([0-9]+) ([A-Z][a-z]+)\. ([0-9]+) \.([0-9]+)	\1 \2 \3:\4
# 2023-05-05 Change to to semicolon in references (John 6.70) OK
#([A-Z][a-z]+) ([0-9]+) \.([0-9]+)	\1 \2:\3
#
# Remove ending dot in bible reference 	2024-04-15 
# Psalms 2:7.; => Psalms 2:7;
([0-9]+):([0-9]+)\.;	\1:\2;
####################### End ###################################