﻿Unknown
Unknown
Matthew 13:45-42
Matthew 18:12-13
Luke 15:8-14
Luke 15:11-35
Luke 13:6-96
Matthew 13:31-37
Matthew 13:24-38
Matthew 21:33-49
Matthew 13:3-910
Luke 14:16-211
Matthew 13:44  12
Matthew 9:16-113
Luke 7:41-414
Luke 14:28-315
Matthew 12:43-416
Matthew 21:28-317
Matthew 7:24-218
Luke 12:16-219
Mark 4:26-220
Matthew 13:33
Luke 13:20-221
Matthew 22:2-122
Luke 11:5-123
Luke 18:1-824
Luke 14:7-125
Luke 18:9-126
Luke 19:11-227
Matthew 25:14-328
Luke 16:1-929
Luke 16:19-330
Luke 10:30-331
Matthew 18:21-332
Matthew 13:52  33
Luke 12:42-434
Matthew 25:1-135
Mark 13:34-336
Luke 12:35-437
Matthew 20:1-138
Luke 17:7-139
Matthew 25:31-440
Matthew 13:47-541
John 6:48-542
John 3:5
John 4:10
John 4:13-143
Matthew 5:14-18:12
John 9:5
John 12:35-344
John 5:1-145
Matthew 8:1-446
John 9:1-447
Matthew 8:23-248
Matthew 5:13
Mark 9:49-549
Matthew 7:15
Matthew 10:16  50
John 15:1-951
Matthew 16:13-1
Matthew 13:34-3
Matthew 7:28-2
Psalms 19:1   3
Romans 1:21
Matthew 13:11
Matthew 13:35
Revelation 13:8
Matthew 11:25
Matthew 13:11
Matthew 21:16
Luke 10:21
Psalms 8:2    5
Romans 16:25
Ephesians 1:4; 1:9; 3:3; 6:19
Colossians 1:26-2
Exodus 20:11
Luke 8:5-1
Matthew 13:38 .  2
Matthew 13:37 .  3
Mark 4:15 .  The Seed  1
Luke 8:11 .  Note: COL, p. 33
1 Peter 1:23
Psalms 119:11
Unknown
Isaiah 55:11
Luke 8:12
Acts 24:25
Acts 26:27-2 6
Acts 7:54
Acts 7:57   7
2 Thessalonians 2:9-1
Luke 8:6
Matthew 13:5-6
1 Timothy 3:5
Luke 9:58
Matthew 13:21
Matthew 10:34-3
Mark 10:28-3 6
Genesis 3:18
Mark 4:19
Luke 8:14 .  4
Matthew 6:25   7
Matthew 19:16-2 8
1 Timothy 6:9-1 9
1 John 2:15-1
Luke 21:34-3 11
Luke 8:15   2
Acts 10:33   4
Galatians 5:22-2 7
John 14:23
Revelation 1:3
Revelation 22:7
Unknown
James 1:22-2 11
Ezekiel 36:26-2 2
Acts 26:9-1
John 21:1-1
Matthew 4:19 .  5
Matthew 4:19
Luke 5:4
Luke 5:5
Luke 5:3
John 15:5 .   3
Luke 5:5
Unknown
Isaiah 55:10-1
Luke 5:1-8
Luke 5:5
Matthew 9:37-3
Luke 5:7
Luke 5:6-7 9
John 21:11
Luke 5:8   12
Unknown
Matthew 4:19
John 21:6 .  14
John 12:32-3 16
Luke 5:11

Acts 1:1-2
Acts 1:14
Acts 2:1-4
Acts 2:14
Acts 2:41
Acts 2:47
Acts 4:13
Unknown
Acts 4:13
Luke 16:19
Unknown
Luke 10:33
Luke 12:16
Luke 13:6
Luke 14:16
Luke 15:11
Luke 16:1
Luke 19:12
Luke 20:9 .  2
Luke 16:20
Luke 16:14   4
Acts 23:8
John 5:28   2
Matthew 13:40
Matthew 25:31-33:12-1 3
Luke 16:22
Genesis 3:19
Ecclesiastes 12:7
Luke 16:23
Luke 16:24
Luke 16:24
Mark 9:43-4
Matthew 5:29-3
Matthew 24:31
1 Thessalonians 4:16-1
John 14:1-3 5
Luke 16:24-2
Deuteronomy 18:10-1
Ecclesiastes 9:5   7
John 13:23
Isaiah 40:11
John 1:18
Deuteronomy 13:6
Deuteronomy 28:54
Deuteronomy 28:56
Luke 16:24
Colossians 3:5
Luke 12:48
Matthew 6:19-38:1-358
Matthew 14:1-3
Matthew 19:1-3
Luke 16:24-2
John 8:37-4
John 5:39-4 2
Matthew 15:26-2
Matthew 3:9-1
Matthew 7:6 .  4
Luke 16:22
Luke 16:22
Luke 16:23
Luke 16:24
Luke 16:23
Luke 16:24
Luke 16:25
Luke 16:30   6
Luke 16:31
Unknown
Luke 18:33
Luke 24:7
Luke 24:46
Acts 26:23
John 11:24-2
John 11:53 .  9
John 12:10
Luke 16:31   10
Matthew 22:7
Unknown
Luke 19:41-4
Acts 13:46-4
Luke 18:1   2
Luke 17:26-3 4
Luke 18:8
Luke 18:7
Ephesians 5:25-2 3
Luke 18:7
Matthew 24:22
Matthew 24:24   5
Luke 18:3
1 Peter 5:8
Luke 18:4
Luke 18:7
Acts 8:7
Luke 9:38
Matthew 27:46
Luke 18:7-8 7
Genesis 32:1-3
Genesis 32:28-2 8
Unknown
Unknown

Job 13:15
Unknown
Matthew 15:21-2 10
Isaiah 54:7-8
Luke 18:8 .  2
Revelation 14:12
Luke 22:53
Matthew 26:56
Matthew 27:35
Matthew 26:39-4
Matthew 27:46
Hebrews 5:7
Hebrews 5:8   2
Unknown
Job 23:10
1 Peter 1:6-710:37-3 5
Mark 1:35
Matthew 3:7-1
Luke 13:1-9
Unknown
Isaiah 61:3
Unknown
Matthew 3:10.  3
Unknown
Matthew 3:7
Matthew 3:9
Unknown
Unknown
Matthew 3:8
Unknown
Unknown
Matthew 3:8
Unknown
Unknown
Unknown
Luke 3:10
Luke 3:12
Luke 3:14
Unknown
Unknown
Unknown
Unknown
Luke 3:10-14
Unknown
Galatians 5:22-2 8
Unknown
Matthew 3:10
Matthew 3:12
Unknown
Unknown
Luke 13:1-4 2
Luke 13:6
Matthew 23:23-2
Luke 13:1-3 8
Unknown
Luke 13:7 .   9
Luke 13:8
Luke 13:1-9
Luke 13:9
Matthew 21:19
Matthew 21:19 .  4
Matthew 21:20
Mark 11:20
John 1:1-3_______________.  2
Genesis 1:31  3
Matthew 13:27
Matthew 13:37  3
Matthew 13:38   4
Matthew 13:38   6
Matthew 13:38
Matthew 13:39
Matthew 13:39
Unknown
Matthew 13:39
Matthew 28:20
Matthew 13:39   11
Unknown
Revelation 14:9-1
Matthew 13:41-4
Psalms 112:10
Matthew 13:50
Matthew 22:13
Matthew 24:51
Matthew 25:30
Luke 13:28
Daniel 12:3
John 16:27
Luke 15:1
Luke 15:2
Leviticus 9:2-3
Revelation 18:2-3
Isaiah 61:10
1 Timothy 3:15   2
Luke 15:1-2
Hebrews 12:15-1
Luke 15:12
Luke 15:13
Luke 15:13
Luke 15:14
Luke 15:15
Exodus 20:12
Exodus 20:14
Luke 15:24
Ephesians 2:12-1
Luke 15:15
Revelation 18:2
Mark 5:12-1 The Return Home  1
Luke 15:17
Luke 15:17   3
Romans 2:4
Luke 15:18-1 6
Luke 15:19
Luke 15:20
Luke 15:20   10
Luke 15:23
Luke 15:22
Luke 15:22
Luke 15:22   12
Isaiah 64:6
Genesis 3:21
Isaiah 61:10
Zechariah 3:1-5
Leviticus 9:2 .  14
Luke 15:18-115:21
Luke 15:23-2
Luke 15:29-3
Luke 15:29 .  12
Luke 15:29
Luke 15:28
Matthew 19:16-2
Matthew 20:1-1 14
Matthew 16:11-1
John 3:1-3
John 3:8
Matthew 13:33
John 3:8
Ephesians 6:17   13
Psalms 119:11   14
John 17:17   15
Ephesians 5:26   16
Matthew 13:33   2
1 Corinthians 10:17
Acts 2:1-4
Leviticus 23:17
Matthew 16:6
Matthew 16:11-1
Exodus 12:15
Exodus 12:19
Exodus 13:7
1 Corinthians 5:8
1 John 3:5  .  5
Exodus 16:20
Exodus 16:24   7
John 6:48-5 8
Luke 23:54   9
Psalms 16:9-1 10
Acts 2:27
Acts 13:34-3
Exodus 16:1-3
Unknown
Galatians 5:7
Galatians 5:9
Unknown
John 6:63
Exodus 16:4
Exodus 16:33, 34
Hebrews 9:4
Mark 10:17-2
Luke 10:37   3
Luke 10:25
Matthew 19:16
Matthew 19:17
Revelation 12:17   3
Matthew 19:18-1
Exodus 20:17
Leviticus 19:18   4
Matthew 19:20
Matthew 19:21
Romans 13:10
Matthew 22:34-4
Mark 10:21
Unknown
Mark 10:21
Unknown

Unknown
Mark 10:21   6
Matthew 19:22
Luke 10:26
Luke 10:28
Luke 10:29
John 10:10   2
Isaiah 61:10
Ephesians 2:5    5
Unknown
John 4:9
John 8:48
Romans 5:10
Luke 10:34   10
Matthew 26:28 .  11
Zechariah 4:6   12
Revelation 22:12  13
Ephesians 4:11-12   14
Acts 1:9
John 14:3   15
Revelation 22:12
Luke 10:37

1 John 2:6   3
1 John 4:20
Matthew 19:17
Matthew 19:21
Matthew 19:17
Matthew 19:21
Luke 10:37
Matthew 5:48
Luke 6:27-3
Unknown
Luke 6:36
Matthew 25:31-4
Matthew 25:34   8
Matthew 25:35-3
Matthew 25:40   9
Matthew 25:45
Mark 1:40-4
Numbers 12:12
Leviticus 13:46
Jeremiah 31:40
Unknown
Job 2:8
Unknown
Leviticus 13:45
Leviticus 13:51   5
Leviticus 13:43-4 6
2 Kings 5:7
Numbers 12:9-1
Leviticus 13:1-5
Leviticus 14:1-5
Leviticus 13:2
Leviticus 14:7
Leviticus 14:4   4
Leviticus 14:4   5
Leviticus 14:5   6
Leviticus 14:6-7
Luke 5:12-1
Luke 5:12
Mark 1:41
Matthew 8:3
John 14:8-9
Unknown
2 Kings 5:14   6
Luke 5:15
Ephesians 2:1
Romans 5:12
Isaiah 1:5-6
Isaiah 64:6   5
Hebrews 4:14   6
Hebrews 4:12-1 7
John 4:13-1 9
2 Corinthians 4:7   10
Isaiah 1:18
Psalms 51:7
Revelation 7:14
1 John 1:7   12
John 8:36   14
2 Corinthians 5:17   15
Mark 5:19    16
Matthew 8:17
Leviticus 13:1-5
Isaiah 53:4
Isaiah 53:8
Isaiah 53:4
John 5:39-4
Luke 24:25-2
Luke 24:31-3
Luke 24:27 .  5
Luke 24:44 .  6
2 Corinthians 3:14-1
Exodus 34:28-34
Acts 6:15
Acts 7:52   10
Philippians 3:8
Luke 15:1-3
Luke 15:1-2 2
1 Samuel 16:11-1
Ezekiel 34:1-3
Ezekiel 34:1-2 3
Ezekiel 34:3   4
Ezekiel 34:4   5
Ezekiel 34:6   6
Ezekiel 34:8   7
Ezekiel 34:11   8
Ezekiel 34:15   9
Ezekiel 34:17
Matthew 25:31ff   10
Ezekiel 34:23-2
Ezekiel 34:30-3
Psalms 23:1   2
Matthew 9:36
Mark 6:34
Ezekiel 34:1-3
Ezekiel 34:1-3 4
John 10:3-4
John 10:4
John 10:12
John 10:11
John 10:15
John 10:9
John 10:3
John 10:14
John 10:28  5
John 10:1-4
John 10:26
John 10:27
John 10:29
John 10:16
John 10:4
John 10:8
John 10:10
John 10:12-1
Isaiah 53:6
Zechariah 13:7
Zechariah 13:7
Mark 14:27
Psalms 119:176   5
Genesis 3:8-9
Revelation 7:9-1 6
Revelation 7:17
Revelation 19:6-7
Psalms 23:1-2
Revelation 7:9-110:1-1
2 Peter 5:4
2 Peter 5:2-3 2
Jeremiah 6:2
Deuteronomy 4:12-1
Jeremiah 6:2   2
Ephesians 5:25
Psalms 119:105   6
Mark 7:7-9
Isaiah 8:18
Jeremiah 31:32
Jeremiah 6:2
Ezekiel 16:1-6
Deuteronomy 4:13   3
Exodus 31:16-1
Psalms 119:72
Exodus 20:8   6
Nehemiah 13:17-1
2 Chronicles 36:19   2
Nehemiah 1:1-3 3
Unknown
Nehemiah 2:17   4
Unknown
Nehemiah 4:6   5
Nehemiah 4:7   6
Nehemiah 4:10   7
Nehemiah 6:1   8
Nehemiah 6:15   9
Matthew 25:1
Matthew 25:1
Psalms 119:105   3
2 Corinthians 11:2  4
Zechariah 4:6
Unknown
Daniel 7:13-1EW, p. 56.3
Matthew 25:1-1
Matthew 24:36-5
Psalms 119:105   2
Zechariah 4:1-1 3
2 Corinthians 11:2   4
Matthew 25:13   5
Zechariah 4:1-1
Luke 5:34-3
Genesis 6:3
Genesis 7:16
Revelation 13:15
Matthew 7:22-2  11
Exodus 33:18-1 4
John 9:5
Matthew 5:16
Matthew 5:16   9
Matthew 5:16   2
Luke 18:9   2
Luke 18:11
Unknown
Isaiah 6:5
Luke 5:8
Exodus 3:6 .  5
Luke 18:12   6
Matthew 6:5
Matthew 23:27-2
Romans 10:3 .  9
Luke 18:13   2
Matthew 24:13
Matthew 18:21   2
Matthew 18:22   4
Genesis 4:24
Matthew 18:35
Matthew 18:35
Matthew 18:35   4
Matthew 18:23-2
Luke 16:2
Matthew 18:24
Matthew 18:24
Matthew 18:26
Matthew 18:27
Micah 7:19
Isaiah 38:17   3
Psalms 103:12   4
Isaiah 44:22   5
Isaiah 43:25   6
1 John 1:9
Matthew 18:28   2
Matthew 18:29
Matthew 18:26
Matthew 18:30   4
Matthew 18:34
Matthew 18:33   3
1 Corinthians 6:1-3 5
Ephesians 4:32
Matthew 6:14-1 7
John 7:37-3 8
Matthew 13:44
2 Corinthians 4:3-4 4
Proverbs 8:10   5
Proverbs 16:16   6
Proverbs 2:1-5
Psalms 119:72   8
John 5:39
John 5:46
Matthew 13:44   2
Leviticus 14:4-8
John 1:14
Matthew 7:24
Matthew 25:2
Matthew 7:24
John 1:1-3 3
Unknown
Luke 6:47   4
Matthew 7:26
Romans 2:13
Romans 2:13.  2
Unknown
1 John 3:18   3
Matthew 7:21   4
Matthew 7:22
1 Corinthians 12:7-1as His.  5
Matthew 7:23
1 John 3:4
Matthew 7:15   8
Matthew 25:11-1
Matthew 7:16
Matthew 7:18   2
Galatians 5:22-2 3
Galatians 5:19-2 4
Matthew 7:19
Galatians 5:21   5
John 15:5
John 15:8   6
John 8:33   7
Unknown
Matthew 3:10
Luke 3:10-1by “fruit” .  8
Romans 6:22
Jeremiah 31:31   2
1 Timothy 3:15   3
Psalms 127:1
Matthew 12:43-4 5
2 Samuel 22:2-3 2
1 Corinthians 10:4
2 Peter 2:8    3
Unknown
Luke 6:48
1 Corinthians 3:11   5
Matthew 16:18   6
John 1:1-3
John 6:63 .  7
Ephesians 2:20
Matthew 7:1-2
Mark 7:1-3
Unknown
Isaiah 28:16-1
Revelation 7:1
Revelation 6:17   2
Ephesians 4:14
Jude 1:12
Matthew 11:7
James 1:6   3
Unknown
Revelation 12:15
Isaiah 8:7-8 4
Matthew 7:24-2
Isaiah 4:1-6 5
Unknown
Revelation 18:2
Psalms 27:5   8
Ephesians 2:20-2
Isaiah 5:1-3
Matthew 21:33-4
Matthew 21:1-1
Matthew 21:23
Matthew 21:18
Matthew 21:12-1
Unknown
Matthew 21:43
Matthew 21:34   2
Matthew 21:36   3
Matthew 21:37    4
Matthew 21:41   5
Matthew 21:41   6
Matthew 21:44   7
Daniel 2:44
2 Kings 24:15-1
Matthew 23:37 . 3
Unknown
Matthew 21:43; Act_13:46-4
Revelation 20:11-1
Matthew 21:33
Unknown
Matthew 21:34
2 Chronicles 36:15-1
2 Chronicles 36:17-2
Ezra 5:2
Matthew 21:36
Unknown
Unknown
Unknown
Unknown
Unknown
Unknown
Unknown
Matthew 21:37
Unknown
Mark 1:9-1
Matthew 3:8
Matthew 3:10
Luke 13:1-6 17
Matthew 21:38-3
Luke 20:9
Romans 8:17
Galatians 3:16
Galatians 3:29
John 8:1-5
John 11:47-5
Hebrews 13:12-1 18
Unknown
Matthew 21:41
Matthew 21:41   20
Luke 20:16   21
Matthew 23:38-3 23
Matthew 23:39
Revelation 3:17   9
Revelation 3:16   10
Revelation 3:20   11
Matthew 13:1-5
2 Peter 1:18-1 5
Hebrews 5:8-9
Acts 10:1-4 3
Revelation 3:17-1
Isaiah 53:2
John 1:11
2 Peter 2:4
Unknown
Matthew 13:46   2
Mark 10:21   5
Luke 14:33   6
Philippians 3:8   7
John 3:16
Mark 10:29
Matthew 10:37
Matthew 6:33
Mark 10:29-3 3
Romans 8:32
Revelation 7:14
Ephesians 1:6
Acts 14:22   3
Revelation 21:21
Revelation 19:7-8
Matthew 21:23
Matthew 21:45
Matthew 21:1-4
Matthew 21:23
Matthew 21:45
Matthew 21:33-4 2
Unknown
Matthew 3:1-27
Luke 10:1 .  5
John 3:29 ,  6
Matthew 9:15
Matthew 22:3
Matthew 22:5-6
Unknown
Acts 4:1-3
Acts 8:1-413:26-5
Acts 12:1-3 10
Matthew 21:43
Acts 10:1-4
Matthew 21:7-8
Matthew 13:47-5
Revelation 14:7
Revelation 22:12.  4
Luke 12:35-36
Ephesians 2:8-9
Matthew 16:27
2 Corinthians 11:15
Ephesians 2:8-12:14-2
Genesis 3:21   3
Revelation 7:14
Revelation 19:8
Psalms 119:11
Matthew 22:12
Matthew 13:1-5
Daniel 7:1-2
John 6:15   5
Luke 8:11   2
Luke 17:20-2
John 18:36   5
Matthew 13:33   6
Unknown
1 Corinthians 3:9   3
Galatians 6:7   3
2 Corinthians 9:6   3
Unknown
Luke 6:38   5
John 12:24
Unknown
Matthew 26:18
John 13:1-326
Matthew 26:18-4
Unknown
Unknown
Unknown
Unknown
John 13:1-1
John 15:1-8
Unknown
Unknown
Matthew 26:39
Matthew 26:42
Matthew 26:44
Unknown
John 17:1-26.  2
John 14:31
Matthew 26:36
John 15:1
John 15:5   3
Galatians 5:22-2

Matthew 3:8
Matthew 7:16
Matthew 12:33
Matthew 21:19
Matthew 21:33-4 4
John 6:32
Jeremiah 2:21
Unknown
John 15:16
John 15:4; (DA, p. 676.1
John 15:9
1 John 4:13
John 15:11
John 15:7
John 6:56
John 6:63
John 17:3
John 20:31   4
Unknown
2 Corinthians 3:18
Galatians 2:20   8
John 17:20
John 15:5
Galatians 5:22.  2
John 15:8   3
Matthew 5:16
John 15:10
John 15:14
John 14:14-1 5
John 15:12   6
Romans 13:8-9 7
John 15:11
John 14:28
John 16:20-2
Isaiah 53:11   8
John 17:1-2
John 17:21
John 17:23   10
John 15:18-1
Unknown
John 15:2
Ephesians 5:26-2 4
John 17:17   5
Hebrews 4:12   6
Psalms 119:9
Psalms 119:11   7
John 15:3
Unknown
John 13:10
John 17:12 .  8
Unknown
John 15:2
John 15:6
Matthew 24:12
2 Peter 2:20-2
Unknown
Mark 4:6
Unknown
Luke 11:1   2
John 14:24
Matthew 20:28   3
Isaiah 50:4   5
Unknown
Mark 1:35   6
John 7:37-3
Acts 20:35   7
Acts 20:35
Luke 6:38
Luke 11:11-1
John 14:15-1 3
Proverbs 28:9
Acts 5:32   5
Matthew 4:5-7 6
John 5:14-1 7
Matthew 21:28-3
Unknown
Matthew 21:28-3
Matthew 21:23   2
Matthew 21:12-1 3
Matthew 21:14   4
Matthew 21:31
Unknown
Unknown
Unknown
Unknown
Unknown
Luke 7:29   5
Unknown
1 John 1:10
Romans 3:4 for the answer   6
Unknown
Luke 3:10
Luke 3:12
Luke 3:14
Unknown
Matthew 3:7
Matthew 23:33   4
Unknown
Luke 7:30   5
Matthew 23:1-3   6
Exodus 19:8
Jeremiah 31:31-3
Matthew 23:23-2 10
Revelation 3:14-2
Matthew 7:21
Matthew 7:22
Luke 10:12
Luke 17:31 .  2
Romans 2:13   3
Romans 3:28
Romans 2:13
James 2:14-2 4
Matthew 20:1-1
Matthew 19:13
Matthew 19:16   3
Matthew 19:17
Matthew 19:18-1
Ephesians 2:8-9
Unknown
Luke 5:28   11
Matthew 6:24   12
Matthew 19:24
1 Timothy 6:9-1 3
Matthew 19:25; COL, p. 393.3
1 Corinthians 6:19-2
Matthew 19:26
1 Corinthians 6:19-2
Matthew 19:29
Matthew 20:1-1
Matthew 20:2, 7
Titus 3:5
Matthew 16:27
Revelation 22:12
2 Corinthians 5:10
Matthew 25:34-4
Matthew 22:1-1
Luke 14:1   2
Luke 14:11
Matthew 20:16
Luke 14:12-1 4
Matthew 8:11-1
John 6:1-7
Luke 14:21   2
Matthew 21:31
Unknown
Unknown
Matthew 11:4-5 5
Matthew 21:14
Luke 14:22
Luke 14:23   2
Matthew 10:5-6 4
Acts 1:8   5
Acts 13:46-4
Luke 14:26-2 3
Revelation 14:7   2
Revelation 14:6; (COL, p. 228
Matthew 28:19
Mark 16:15
Joshua 5:12
Revelation 2:17
John 6:1-7
1 Corinthians 10:1-1
1 Corinthians 10:11
Unknown
Exodus 1:13-1 2
Exodus 2:23   3
Exodus 2:24-2 4
Exodus 12:13   5
1 Corinthians 10:2
Exodus 3:8   7
Exodus 16:4
Psalms 78:24-2
John 6:51   3
John 1:1
Matthew 1:23  4
John 1:14
Hebrews 2:14-1 5
2 Timothy 3:16
2 Peter 1:21
John 6:63
Exodus 16:4
John 5:45
John 6:31-3 2
Unknown
Deuteronomy 8:3   4
1 Corinthians 10:3
Exodus 16:4
Deuteronomy 8:3
1 Corinthians 10:3
John 6:2
John 6:14
John 6:26
Unknown
John 6:15
Luke 17:21
John 2:19-2
Unknown
John 1:21
Luke 1:17
Romans 2:28-29
Matthew 23:5
Psalms 119:11
John 3:1ff .  7
John 6:52
John 6:68   9
Exodus 16:4
Exodus 16:21
Exodus 16:18
Exodus 16:31
Psalms 19:10
Psalms 119:103

Jeremiah 15:16   4
Exodus 16:4
Exodus 16:21
Mark 1:35
Psalms 5:3   7
Exodus 16:18
Exodus 16:18
2 Corinthians 8:13-1 9
Numbers 11:1-9
John 6:1-7
John 6:4
Leviticus 24:6
Leviticus 24:8   4
Exodus 16:20   5
Exodus 16:24   6
Luke 23:54-5 6
Acts 2:31
Exodus 16:26
Exodus 16:29
Exodus 16:1-3
Exodus 16:28   3
Numbers 11:4   2
Numbers 11:33
Unknown
Unknown
Daniel 1:14-1
John 4:13-1
Exodus 17:1-8
Numbers 20:8-154
John 7:37-3
Deuteronomy 32:4   2
1 Corinthians 10:4
Psalms 89:31-3 2
Proverbs 13:24
Proverbs 23:13-1 3
Unknown
Job 9:34
Isaiah 11:4
Exodus 17:6   2
Exodus 17:3   3
Isaiah 53:4-5
Unknown
Jeremiah 2:13   2
1 Corinthians 12:13   3
Psalms 42:1   5
1 Corinthians 12:13
John 6:63
Hebrews 7:27
Hebrews 9:25-2
John 4:5-6 2
John 4:6
John 11:9
John 4:11
John 4:8   5
John 4:13-1
John 4:16-1
John 4:18
John 16:8   10
John 4:21
John 4:23   12
John 4:22-2
John 4:9
John 4:19
John 4:28-2
John 4:34   2
John 4:34
John 4:28
John 4:28-2 3
John 4:30
John 4:41   5
John 4:37-3
John 4:40   7
John 4:41-4 8
Unknown
John 7:37   2
John 4:1-5
John 4:14
John 7:38   6
Revelation 22:17
Zechariah 2:8
Matthew 25:1-1
Matthew 25:14-3 2
Mark 3:35   3
John 20:17    5
Hebrews 2:11   6
Matthew 25:31
Matthew 16:27   2
Matthew 25:31   3
Matthew 25:32   4
Matthew 25:41   5
Matthew 25:41   6
Matthew 25:34
Revelation 20:11; GC, p. 666.1
Revelation 3:21 . 2
Zechariah 14:5
2 Thessalonians 1:7-1
Revelation 20:7-9
Revelation 20:11-1
Revelation 20:7-9
Revelation 20:15 , 5
Matthew 5:5
Revelation 21:1
Daniel 7:27   The Sheep  1
John 10:11   2
Matthew 25:1-4
Ezekiel 34:17
Matthew 25:33
Genesis 48:13-1
Unknown
Matthew 25:35-3
Ephesians 2:12  5
Matthew 25:37-3
Matthew 25:40   8
Acts 9:4   9
Mark 9:41   10
Unknown
Zechariah 2:8   11
Unknown
James 1:27
Matthew 5:5
Matthew 25:34   The Goats  1
Matthew 25:45
Matthew 25:44
Matthew 25:35-4
Revelation 20:12-1
Revelation 20:15
Matthew 25:41   5
Hebrews 12:29
Revelation 20:9   7
Unknown
Malachi 4:1
Ezekiel 28:18-1 9
Isaiah 33:15
Matthew 25:14-3
Matthew 24:3-4   2
Matthew 24:4-4
Matthew 24:45-525:31-4
Matthew 25:14
Matthew 25:14
Ephesians 4:8   3
1 Corinthians 12:8-1
Matthew 25:15   2
Matthew 25:15
Luke 16:10
Matthew 25:19
Luke 19:13
2 Corinthians 5:10   2
Luke 12:48
Matthew 25:23
Unknown
Matthew 14:22-3
John 4:31-3 4
Mark 4:40
John 6:1-1  2
John 6:15  4
John 5:1-4
Mark 2:5; (DA, p. 267.1   2
John 6:37   4
John 6:1-2
Unknown
John 12:32
John 5:1-9
John 5:4
John 5:14   5
Ephesians 2:1
John 5:9
John 5:16
Unknown
Isaiah 42:21
Matthew 5:21-2
John 5:17
John 7:21-2 8
Luke 13:10-1
John 5:19
John 5:19-21
Mark 2:27
Acts 10:43.” (DA, p. 211.5
John 5:43
James 5:1-3
Luke 12:15-2
Luke 12:13-1
Luke 12:22-3
Deuteronomy 21:17
2 Peter 1:4.” (COL, p. 253.2
Luke 12:15
Deuteronomy 8:18
Luke 12:17-1
Matthew 25:14
Matthew 25:18
Matthew 25:25
Matthew 25:27
Luke 16:19
Luke 16:21
Luke 18:22
Luke 12:33   2
Matthew 6:32   3
Luke 12:21   4
Psalms 39:6" (COL, p. 258.2
Proverbs 13:7
2 Corinthians 8:9
1 Timothy 6:7-8
1 Timothy 6:9-1 13
Luke 12:20

James 1:10-1
Psalms 39:6
Matthew 6:33   2
Mark 12:43-4
Unknown
James 5:1-3 2
James 5:3-4 3
James 5:5   4
Revelation 18:16-1
Ezekiel 28:4-5 6
Unknown
Ezekiel 7:19   7
Mark 10:23
Mark 10:24   8
Luke 16:11
Luke 19:8    2
Acts 2:45  3
1 Timothy 6:17-1
Matthew 23:24
Matthew 23:26
Revelation 3:17-1
John 9:1-4
John 8:2   2
John 8:12   3
John 8:59   4
John 8:58   5
John 9:1
Acts 3:1-2
John 9:8
John 9:2
John 9:3
John 9:4
John 9:16   2
John 9:6
Isaiah 64:8
Matthew 12:12
Mark 2:27
John 9:16
Mark 3:6
John 9:15   2
John 9:17   3
John 9:18-1 4
John 9:20-2 5
John 9:22    6
John 9:24   7
John 9:25   8
John 9:27
John 9:28-2 10
John 5:45-4 11
John 9:30-3
Isaiah 35:5
Luke 4:18   12
John 9:34
John 9:35-3
John 9:39   3
John 9:39
John 9:40-4
John 9:39
Matthew 13:13-16:10
Ephesians 1:18
Genesis 3:4, 5
Ephesians 1:18 .  3
Psalms 119:18
Isaiah 29:10
Acts 26:18   6
Acts 28:26-2 7
Matthew 23:16-1
Matthew 23:24
Matthew 23:26   9
Matthew 15:14   10
1 John 2:11  11
Revelation 3:17   12
Luke 24:16
Luke 24:31
Luke 14:27-3
Luke 14:27-3
Luke 14:25   2
John 6:2
John 6:66
Luke 14:26   2
Matthew 10:37
Matthew 10:34
Luke 14:26
Luke 9:24-2 4
Acts 5:29
Luke 14:27   2
Luke 9:23   3
Galatians 2:20  4
Galatians 5:24-2 5
1 Corinthians 15:31
Luke 14:28
Luke 14:29-3
Matthew 13:5-6  4
Matthew 13:20-21   5
Matthew 24:13   6
Philippians 1:6   7
Luke 14:31-3
Luke 14:33   2
Luke 18:22   3
Matthew 13:44   4
Matthew 13:45-4 5
Unknown
Unknown
Luke 5:11   6
Unknown
Luke 5:28   7
Acts 2:44-4 8
Philippians 3:8   9
Mark 12:44   Judas Iscariot  1
Luke 9:58   2
John 6:15
Romans 8:32
Romans 8:17   4
Acts 14:22
Matthew 15:1-2
Matthew 15:11
Matthew 15:15
Mark 7:1
Mark 7:14
Mark 7:17   4
Mark 6:45
Mark 6:45
John 6:17
Mark 7:2
Mark 7:3
Mark 7:3
Mark 7:4
Mark 7:13
Mark 7:8
Mark 7:6
Mark 7:7
Mark 7:9   8
Mark 7:13  9
Mark 7:10   10
Mark 7:11-1
Matthew 23:16-1 12
Mark 7:6   2
Matthew 12:34   3
Matthew 5:28   4
Matthew 5:8   5
Matthew 6:21   6
Matthew 23:24-2 7
Mark 7:15
Matthew 15:18-1
Ezekiel 36:26-2 9
Matthew 15:20
Matthew 15:20
Mark 7:19
Unknown
Matthew 15:20
Leviticus 11:1-4
Acts 10:12-4
Unknown
Unknown
1 Corinthians 10:31
Matthew 24:37-3
Mark 13:33-3
Mark 13:33-3
Mark 13:34   3
Mark 13:34
Mark 13:33   2
Matthew 25:13   3
Matthew 26:41   4
Revelation 3:3
Luke 19:13   2
Matthew 25:1-1 3
Matthew 25:27   4
Matthew 24:48-55
2 Peter 2:5
Hebrews 11:7   6
John 9:4   Being Ready  1
Luke 12:35   2
Matthew 24:44   3
Unknown
Luke 1:17   4
Unknown
Matthew 3:3
Matthew 3:8   5
Unknown
Revelation 19:7   6
Revelation 19:8
Mark 13:33
Mark 13:33
Matthew 24:39
Mark 13:35, 36
Daniel 5:27.” (GC, p. 491
Mark 13:33
Matthew 25:13   5
Revelation 3:3    6
Revelation 3:3
Mark 4:26-2
Mark 4:26-2
Luke 8:11
2 Peter 1:23   2
Isaiah 55:10-1 3
Acts 6:7   4
John 12:24   7
Romans 6:22; 1Thessalonians 4
Hebrews 5:12
Unknown
Hebrews 6:1-6
Unknown
Ephesians 4:14  8
2 Peter 3:18
2 Corinthians 3:18   2
John 12:24
Ephesians 5:27   6
Unknown
Revelation 14:15   7
Revelation 14:1-5
Jeremiah 8:20   2
Psalms 126:5-6   3
Galatians 6:7-9
Matthew 16:13-1EW, pp. 162-1
Matthew 16:13
Luke 9:18
Unknown
Unknown
Matthew 16:13, 14
Matthew 16:15
Matthew 16:16
John 1:41
Unknown
Matthew 16:17
Unknown
Matthew 16:21   2
Matthew 16:22
Matthew 16:23
Unknown
Unknown
Matthew 17:1, 2
Matthew 16:27, 28
Unknown
Unknown
Unknown
Unknown
Unknown
Matthew 26:37, 38
Unknown
Unknown
Luke 9:28
Luke 9:29
Matthew 17:2
Mark 9:2, 3
Revelation 1:16
Unknown
Unknown
Romans 12:2
2 Corinthians 3:18
Matthew 16:3   2
Unknown
Deuteronomy 34:5, 6
Unknown
Daniel 12:1
1 Thessalonians 4:15-1
2 Kings 2:11, 12
Luke 9:30, 31
Unknown
1 Thessalonians 4:15
Unknown
Matthew 17:4
Matthew 17:5
1 Thessalonians 4:14
1 Thessalonians 3:12, 13
1 Thessalonians 3:12, 13; 4:14
Deuteronomy 33:2
Revelation 5:11
Mark 8:38
Zechariah 14:4, 5
2 Peter 1:16-2 Lesson #4
Matthew 16:24-2
1 Peter 4:12, 13
1 Peter 5:10
2 Timothy 2:12
Luke 11:14-25BC, p. 1093
Matthew 12:28
Mark 1:23, 24
Matthew 12:25
Revelation 20:1-3
John 4:13, 14; 7:37-3  3
Unknown
Unknown
Unknown
Matthew 12:45   2
Matthew 24:34 .  3
1 Samuel 10:6, 9  2
1 Samuel 16:14-1
Numbers 16:33-3 7
Unknown
Matthew 6:24  9
John 13:27
Hebrews 6:4-6 2
Hebrews 6:7, 8   3
2 Peter 2:20-2
Luke 8:6
Matthew 13:5-6
1 Timothy 3:5
Luke 9:58
Matthew 13:21
Matthew 10:34-3
Mark 10:28-3
Joshua 1:8
Unknown
Unknown
Revelation 18:2, 3   4
Revelation 18:1
Luke 14:7-1
Luke 14:7-1
Luke 14:1
Matthew 23:2, 5-7
Matthew 23:10-12
Matthew 6:1, 5   5
Luke 18:13, 14
Mark 9:33-3
Luke 9:46; 10:29-3
Mark 9:33, 34   2
Mark 9:35-3
Unknown
Unknown
Matthew 20:20, 21   4
Matthew 20:24   5
Matthew 20:25-2
Matthew 19:28-3 2
Matthew 20:16
2 Thessalonians 2:3, 4
Unknown
Isaiah 14:12-1 3
Unknown
Ezekiel 28:17
Ezekiel 28:17
Isaiah 14:13, 14
Ezekiel 28:17-1
Ezekiel 28:17, 4, 5
Isaiah 14:13-1 Mystery #2
Unknown
1 Timothy 3:16
Philippians 2:5-8
Philippians 2:9-1
John 13:14, 15
Daniel 4:29, 30   2
Daniel 4:31, 32   3
Daniel 4:37
2 Samuel 18:17
Matthew 11:28, 29  2
1 Peter 5:6   3
Unknown
James 4:10   4
Unknown
Philippians 2:5
John 8:28; 6:57; 8:50; 7:18
Leviticus 2:13
Judges 9:45
2 Kings 2:19-2
Colossians 4:6
James 3:11, 12; PK 231-2
Colossians 4:6
Judges 9:45
Ezekiel 16:3, 4
2 Kings 2:21-2
Leviticus 2:13   2
Romans 12:1
Revelation 8:3, 4
Unknown
Job 6:6   2
Matthew 5:13
Genesis 18:26-33   4
Numbers 18:19   1
2 Chronicles 13:5-6 2
Matthew 26:27-2
Romans 5:10-1
Matthew 5:13   2
Genesis 19:26   3
Luke 17:31, 32   5
Revelation 3:15, 16
Luke 16:1-9
Luke 16:1-1
Luke 16:1  2
Unknown
Luke 6:38; 12:33
1 Timothy 6:17-115
Luke 16:9 and verses 10-1
Matthew 7:15; 10:16:10:3
John 10:12
Ezekiel 22:26-23:1-43:1-5
John 11:11-1 2
Matthew 7:15
Matthew 9:36-3 2
Ezekiel 34:3, 2   3
1 Samuel 17:34-3
Ezekiel 34:3-5 5
Ezekiel 34:10   6
Ezekiel 34:25
Matthew 10:16
Matthew 10:17-2 2
Luke 10:3
Revelation 12:7-9
Genesis 3:13
2 Corinthians 11:3   2
1 Peter 5:8
Ezekiel 22:26-2
Zephaniah 3:1-4 2
Matthew 7:15
Matthew 7:15
Matthew 7:21-2 3
Deuteronomy 13:1-5
2 Corinthians 11:13-1 6
Acts 20:28-3
Matthew 10:16   2
Matthew 10:17-2
Matthew 24:23-2 1
Revelation 13:15
John 16:2
Matthew 24:9-1 3
2 Thessalonians 2:9, 10    4
Revelation 12:17, KJV   5
Isaiah 8:20   2
Matthew 9:14-1386-3
Unknown
Matthew 9:14-17
Unknown
Unknown
Unknown
Unknown
Unknown
Unknown
Unknown
Unknown
Unknown
John 3:29
Unknown
John 16:19, 20
Unknown
Unknown
Unknown
Luke 5:39
Unknown
Revelation 3:17, 18, DA, p. 27
Revelation 3:17   3
Revelation 3:17   4
Revelation 3:20   5
Revelation 3:16   6
Revelation 3:18   7
Unknown
John 14:1-3
Matthew 5:5
1 Thessalonians 4:14
1 Thessalonians 4:13-1
1 Thessalonians 3:12, 13
Deuteronomy 33:2
Unknown
Daniel 7:10
Unknown
Unknown
Revelation 5:11
Unknown
Hebrews 1:3
Mark 8:38
1 Thessalonians 4:17
Psalms 104:3, 4
Hebrews 1:7
Revelation 1:7
2 Thessalonians 1:7
Acts 1:9
Revelation 12:5-6
1 Thessalonians 4:14
Unknown
Acts 1:11
Acts 1:11
Revelation 1:7
Hebrews 1:3
Mark 8:38
1 Thessalonians 4:13-1
Acts 3:19-2
Mark 8:38
Hebrews 1:3
Unknown
Unknown
Unknown

